PCBNEW-LibModule-V1  
# encoding utf-8
Units mm
$INDEX
SOP65P760X160-24N
$EndINDEX
$MODULE SOP65P760X160-24N
Po 0 0 0 15 00000000 00000000 ~~
Li SOP65P760X160-24N
Cd 
Sc 00000000
At SMD
Op 0 0 0
.SolderMask 0.1
.SolderPaste 0
T0 -2.2899 -5.261 1 1 0 0.05 N V 21 "SOP65P760X160-24N"
T1 -1.6549 5.339 1 1 0 0.05 N V 21 "VAL**"
DS -2.8 -4.2 -2.8 4.2 0.2032 24
DS -2.8 4.2 2.8 4.2 0.2032 21
DS 2.8 4.2 2.8 -4.2 0.2032 24
DS 2.8 -4.2 -2.8 -4.2 0.2032 21
DC -1.928 -3.406 -1.6232 -3.406 0.1524 24
DP 0 0 0 0 4 0.381 24
Dl -3.8 -3.725
Dl -2.8 -3.725
Dl -2.8 -3.425
Dl -3.8 -3.425
DP 0 0 0 0 4 0.381 24
Dl -3.8 -3.075
Dl -2.8 -3.075
Dl -2.8 -2.775
Dl -3.8 -2.775
DP 0 0 0 0 4 0.381 24
Dl -3.8 -2.425
Dl -2.8 -2.425
Dl -2.8 -2.125
Dl -3.8 -2.125
DP 0 0 0 0 4 0.381 24
Dl -3.8 -1.775
Dl -2.8 -1.775
Dl -2.8 -1.475
Dl -3.8 -1.475
DP 0 0 0 0 4 0.381 24
Dl -3.8 -1.125
Dl -2.8 -1.125
Dl -2.8 -0.825
Dl -3.8 -0.825
DP 0 0 0 0 4 0.381 24
Dl -3.8 -0.475
Dl -2.8 -0.475
Dl -2.8 -0.175
Dl -3.8 -0.175
DP 0 0 0 0 4 0.381 24
Dl -3.8 0.175
Dl -2.8 0.175
Dl -2.8 0.475
Dl -3.8 0.475
DP 0 0 0 0 4 0.381 24
Dl -3.8 0.825
Dl -2.8 0.825
Dl -2.8 1.125
Dl -3.8 1.125
DP 0 0 0 0 4 0.381 24
Dl -3.8 1.475
Dl -2.8 1.475
Dl -2.8 1.775
Dl -3.8 1.775
DP 0 0 0 0 4 0.381 24
Dl -3.8 2.125
Dl -2.8 2.125
Dl -2.8 2.425
Dl -3.8 2.425
DP 0 0 0 0 4 0.381 24
Dl -3.8 2.775
Dl -2.8 2.775
Dl -2.8 3.075
Dl -3.8 3.075
DP 0 0 0 0 4 0.381 24
Dl -3.8 3.425
Dl -2.8 3.425
Dl -2.8 3.725
Dl -3.8 3.725
DP 0 0 0 0 4 0.381 24
Dl 3.8 -0.175
Dl 2.8 -0.175
Dl 2.8 -0.475
Dl 3.8 -0.475
DP 0 0 0 0 4 0.381 24
Dl 3.8 -0.825
Dl 2.8 -0.825
Dl 2.8 -1.125
Dl 3.8 -1.125
DP 0 0 0 0 4 0.381 24
Dl 3.8 -2.125
Dl 2.8 -2.125
Dl 2.8 -2.425
Dl 3.8 -2.425
DP 0 0 0 0 4 0.381 24
Dl 3.8 -2.775
Dl 2.8 -2.775
Dl 2.8 -3.075
Dl 3.8 -3.075
DP 0 0 0 0 4 0.381 24
Dl 3.8 -3.425
Dl 2.8 -3.425
Dl 2.8 -3.725
Dl 3.8 -3.725
DP 0 0 0 0 4 0.381 24
Dl 3.8 3.725
Dl 2.8 3.725
Dl 2.8 3.425
Dl 3.8 3.425
DP 0 0 0 0 4 0.381 24
Dl 3.8 3.075
Dl 2.8 3.075
Dl 2.8 2.775
Dl 3.8 2.775
DP 0 0 0 0 4 0.381 24
Dl 3.8 1.775
Dl 2.8 1.775
Dl 2.8 1.475
Dl 3.8 1.475
DP 0 0 0 0 4 0.381 24
Dl 3.8 1.125
Dl 2.8 1.125
Dl 2.8 0.825
Dl 3.8 0.825
DP 0 0 0 0 4 0.381 24
Dl 3.8 0.475
Dl 2.8 0.475
Dl 2.8 0.175
Dl 3.8 0.175
DC -4.25 -4.2 -4.123 -4.2 0 21
DS -4.75 -4.5 4.75 -4.5 0.127 24
DS 4.75 -4.5 4.75 4.5 0.127 24
DS 4.75 4.5 -4.75 4.5 0.127 24
DS -4.75 4.5 -4.75 -4.5 0.127 24
DP 0 0 0 0 4 0.381 24
Dl 2.8 -1.775
Dl 3.8 -1.775
Dl 3.8 -1.475
Dl 2.8 -1.475
DP 0 0 0 0 4 0.381 24
Dl 2.8 2.125
Dl 3.8 2.125
Dl 3.8 2.425
Dl 2.8 2.425
$PAD
Sh "1" R 0.4 1.5 0 0 2700
At SMD N 00888000
.SolderMask 0.2
.SolderPaste 0
Ne 0 ""
Po -3.625 -3.575
$EndPAD
$PAD
Sh "2" R 0.4 1.5 0 0 2700
At SMD N 00888000
.SolderMask 0.2
.SolderPaste 0
Ne 0 ""
Po -3.625 -2.925
$EndPAD
$PAD
Sh "3" R 0.4 1.5 0 0 2700
At SMD N 00888000
.SolderMask 0.2
.SolderPaste 0
Ne 0 ""
Po -3.625 -2.275
$EndPAD
$PAD
Sh "4" R 0.4 1.5 0 0 2700
At SMD N 00888000
.SolderMask 0.2
.SolderPaste 0
Ne 0 ""
Po -3.625 -1.625
$EndPAD
$PAD
Sh "5" R 0.4 1.5 0 0 2700
At SMD N 00888000
.SolderMask 0.2
.SolderPaste 0
Ne 0 ""
Po -3.625 -0.975
$EndPAD
$PAD
Sh "6" R 0.4 1.5 0 0 2700
At SMD N 00888000
.SolderMask 0.2
.SolderPaste 0
Ne 0 ""
Po -3.625 -0.325
$EndPAD
$PAD
Sh "7" R 0.4 1.5 0 0 2700
At SMD N 00888000
.SolderMask 0.2
.SolderPaste 0
Ne 0 ""
Po -3.625 0.325
$EndPAD
$PAD
Sh "8" R 0.4 1.5 0 0 2700
At SMD N 00888000
.SolderMask 0.2
.SolderPaste 0
Ne 0 ""
Po -3.625 0.975
$EndPAD
$PAD
Sh "9" R 0.4 1.5 0 0 2700
At SMD N 00888000
.SolderMask 0.2
.SolderPaste 0
Ne 0 ""
Po -3.625 1.625
$EndPAD
$PAD
Sh "10" R 0.4 1.5 0 0 2700
At SMD N 00888000
.SolderMask 0.2
.SolderPaste 0
Ne 0 ""
Po -3.625 2.275
$EndPAD
$PAD
Sh "11" R 0.4 1.5 0 0 2700
At SMD N 00888000
.SolderMask 0.2
.SolderPaste 0
Ne 0 ""
Po -3.625 2.925
$EndPAD
$PAD
Sh "12" R 0.4 1.5 0 0 2700
At SMD N 00888000
.SolderMask 0.2
.SolderPaste 0
Ne 0 ""
Po -3.625 3.575
$EndPAD
$PAD
Sh "15" R 0.4 1.5 0 0 2700
At SMD N 00888000
.SolderMask 0.2
.SolderPaste 0
Ne 0 ""
Po 3.625 2.275
$EndPAD
$PAD
Sh "16" R 0.4 1.5 0 0 2700
At SMD N 00888000
.SolderMask 0.2
.SolderPaste 0
Ne 0 ""
Po 3.625 1.625
$EndPAD
$PAD
Sh "17" R 0.4 1.5 0 0 2700
At SMD N 00888000
.SolderMask 0.2
.SolderPaste 0
Ne 0 ""
Po 3.625 0.975
$EndPAD
$PAD
Sh "18" R 0.4 1.5 0 0 2700
At SMD N 00888000
.SolderMask 0.2
.SolderPaste 0
Ne 0 ""
Po 3.625 0.325
$EndPAD
$PAD
Sh "19" R 0.4 1.5 0 0 2700
At SMD N 00888000
.SolderMask 0.2
.SolderPaste 0
Ne 0 ""
Po 3.625 -0.325
$EndPAD
$PAD
Sh "20" R 0.4 1.5 0 0 2700
At SMD N 00888000
.SolderMask 0.2
.SolderPaste 0
Ne 0 ""
Po 3.625 -0.975
$EndPAD
$PAD
Sh "21" R 0.4 1.5 0 0 2700
At SMD N 00888000
.SolderMask 0.2
.SolderPaste 0
Ne 0 ""
Po 3.625 -1.625
$EndPAD
$PAD
Sh "22" R 0.4 1.5 0 0 2700
At SMD N 00888000
.SolderMask 0.2
.SolderPaste 0
Ne 0 ""
Po 3.625 -2.275
$EndPAD
$PAD
Sh "23" R 0.4 1.5 0 0 2700
At SMD N 00888000
.SolderMask 0.2
.SolderPaste 0
Ne 0 ""
Po 3.625 -2.925
$EndPAD
$PAD
Sh "24" R 0.4 1.5 0 0 2700
At SMD N 00888000
.SolderMask 0.2
.SolderPaste 0
Ne 0 ""
Po 3.625 -3.575
$EndPAD
$PAD
Sh "14" R 0.4 1.5 0 0 2700
At SMD N 00888000
.SolderMask 0.2
.SolderPaste 0
Ne 0 ""
Po 3.625 2.925
$EndPAD
$PAD
Sh "13" R 0.4 1.5 0 0 2700
At SMD N 00888000
.SolderMask 0.2
.SolderPaste 0
Ne 0 ""
Po 3.625 3.575
$EndPAD
$EndMODULE SOP65P760X160-24N
