EESchema Schematic File Version 2
LIBS:power
LIBS:device
LIBS:transistors
LIBS:conn
LIBS:linear
LIBS:regul
LIBS:74xx
LIBS:cmos4000
LIBS:adc-dac
LIBS:memory
LIBS:xilinx
LIBS:microcontrollers
LIBS:dsp
LIBS:microchip
LIBS:analog_switches
LIBS:motorola
LIBS:texas
LIBS:intel
LIBS:audio
LIBS:interface
LIBS:digital-audio
LIBS:philips
LIBS:display
LIBS:cypress
LIBS:siliconi
LIBS:opto
LIBS:atmel
LIBS:contrib
LIBS:valves
LIBS:TB6612FNG_O_C_8_EL
LIBS:plytka-cache
EELAYER 25 0
EELAYER END
$Descr A4 11693 8268
encoding utf-8
Sheet 1 1
Title ""
Date ""
Rev ""
Comp ""
Comment1 ""
Comment2 ""
Comment3 ""
Comment4 ""
$EndDescr
$Comp
L ATMEGA48PA-A IC1
U 1 1 582B95E5
P 4100 3950
F 0 "IC1" H 3350 5200 50  0000 L BNN
F 1 "ATMEGA48PA-A" H 4500 2550 50  0000 L BNN
F 2 "Housings_QFP:TQFP-32_7x7mm_Pitch0.8mm" H 4100 3950 50  0000 C CIN
F 3 "" H 4100 3950 50  0000 C CNN
	1    4100 3950
	1    0    0    -1  
$EndComp
$Comp
L VCC #PWR01
U 1 1 582B96DD
P 1000 850
F 0 "#PWR01" H 1000 700 50  0001 C CNN
F 1 "VCC" H 1000 1000 50  0000 C CNN
F 2 "" H 1000 850 50  0000 C CNN
F 3 "" H 1000 850 50  0000 C CNN
	1    1000 850 
	1    0    0    -1  
$EndComp
$Comp
L GND #PWR02
U 1 1 582B96F3
P 1750 850
F 0 "#PWR02" H 1750 600 50  0001 C CNN
F 1 "GND" H 1750 700 50  0000 C CNN
F 2 "" H 1750 850 50  0000 C CNN
F 3 "" H 1750 850 50  0000 C CNN
	1    1750 850 
	-1   0    0    1   
$EndComp
$Comp
L PWR_FLAG #FLG03
U 1 1 582B99A5
P 1000 900
F 0 "#FLG03" H 1000 995 50  0001 C CNN
F 1 "PWR_FLAG" H 1000 1080 50  0000 C CNN
F 2 "" H 1000 900 50  0000 C CNN
F 3 "" H 1000 900 50  0000 C CNN
	1    1000 900 
	-1   0    0    1   
$EndComp
$Comp
L PWR_FLAG #FLG04
U 1 1 582B99C9
P 1750 900
F 0 "#FLG04" H 1750 995 50  0001 C CNN
F 1 "PWR_FLAG" H 1750 1080 50  0000 C CNN
F 2 "" H 1750 900 50  0000 C CNN
F 3 "" H 1750 900 50  0000 C CNN
	1    1750 900 
	-1   0    0    1   
$EndComp
$Comp
L VCC #PWR05
U 1 1 582B9A56
P 1000 1550
F 0 "#PWR05" H 1000 1400 50  0001 C CNN
F 1 "VCC" H 1000 1700 50  0000 C CNN
F 2 "" H 1000 1550 50  0000 C CNN
F 3 "" H 1000 1550 50  0000 C CNN
	1    1000 1550
	1    0    0    -1  
$EndComp
$Comp
L 7805 U1
U 1 1 582B9AD0
P 950 1950
F 0 "U1" H 1100 1754 50  0000 C CNN
F 1 "7805" H 950 2150 50  0000 C CNN
F 2 "Buttons_Switches_ThroughHole:SW_Micro_SPST" H 950 1950 50  0001 C CNN
F 3 "" H 950 1950 50  0000 C CNN
	1    950  1950
	0    1    1    0   
$EndComp
$Comp
L GND #PWR06
U 1 1 582B9B5C
P 700 1950
F 0 "#PWR06" H 700 1700 50  0001 C CNN
F 1 "GND" H 700 1800 50  0000 C CNN
F 2 "" H 700 1950 50  0000 C CNN
F 3 "" H 700 1950 50  0000 C CNN
	1    700  1950
	0    1    1    0   
$EndComp
$Comp
L +5V #PWR07
U 1 1 582B9BAF
P 1000 2950
F 0 "#PWR07" H 1000 2800 50  0001 C CNN
F 1 "+5V" H 1000 3090 50  0000 C CNN
F 2 "" H 1000 2950 50  0000 C CNN
F 3 "" H 1000 2950 50  0000 C CNN
	1    1000 2950
	-1   0    0    1   
$EndComp
$Comp
L TB6612FNG(O,C,8,EL U2
U 1 1 582BB109
P 7750 4050
F 0 "U2" H 7350 5150 50  0000 L CNN
F 1 "TB6612FNG(O,C,8,EL" H 7350 2725 50  0000 L CNN
F 2 "TB6612FNG_O_C_8_EL:SOP65P760X160-24N" H 7750 4050 50  0001 L CNN
F 3 "1.38 USD" H 7750 4050 50  0001 L CNN
F 4 "Toshiba" H 7750 4050 50  0001 L CNN "MF"
F 5 "SSOP-24 Toshiba" H 7750 4050 50  0001 L CNN "Package"
F 6 "Good" H 7750 4050 50  0001 L CNN "Availability"
F 7 "Stepping Motor Driver Ic Unipolor Copper Wire 8&quot;" H 7750 4050 50  0001 L CNN "Description"
F 8 "TB6612FNG(O,C,8,EL" H 7750 4050 50  0001 L CNN "MP"
	1    7750 4050
	1    0    0    -1  
$EndComp
$Comp
L VCC #PWR08
U 1 1 582BCE5E
P 9100 3350
F 0 "#PWR08" H 9100 3200 50  0001 C CNN
F 1 "VCC" H 9100 3500 50  0000 C CNN
F 2 "" H 9100 3350 50  0000 C CNN
F 3 "" H 9100 3350 50  0000 C CNN
	1    9100 3350
	-1   0    0    1   
$EndComp
Text Label 8750 3750 2    60   ~ 0
MotorA1
Text Label 8750 3950 2    60   ~ 0
MotorA2
Text Label 8750 4250 2    60   ~ 0
MotorB1
Text Label 8750 4450 2    60   ~ 0
MotorB2
$Comp
L GND #PWR09
U 1 1 582BD487
P 8750 4900
F 0 "#PWR09" H 8750 4650 50  0001 C CNN
F 1 "GND" H 8750 4750 50  0000 C CNN
F 2 "" H 8750 4900 50  0000 C CNN
F 3 "" H 8750 4900 50  0000 C CNN
	1    8750 4900
	1    0    0    -1  
$EndComp
$Comp
L +5V #PWR010
U 1 1 582BD783
P 9550 2950
F 0 "#PWR010" H 9550 2800 50  0001 C CNN
F 1 "+5V" H 9550 3090 50  0000 C CNN
F 2 "" H 9550 2950 50  0000 C CNN
F 3 "" H 9550 2950 50  0000 C CNN
	1    9550 2950
	1    0    0    -1  
$EndComp
$Comp
L C_Small C6
U 1 1 582BD929
P 9300 3300
F 0 "C6" H 9310 3370 50  0000 L CNN
F 1 "10u" H 9310 3220 50  0000 L CNN
F 2 "Capacitors_SMD:C_0805" H 9300 3300 50  0001 C CNN
F 3 "" H 9300 3300 50  0000 C CNN
	1    9300 3300
	1    0    0    -1  
$EndComp
$Comp
L C_Small C4
U 1 1 582BD97B
P 9550 3300
F 0 "C4" H 9560 3370 50  0000 L CNN
F 1 "100n" H 9560 3220 50  0000 L CNN
F 2 "Capacitors_SMD:C_0805" H 9550 3300 50  0001 C CNN
F 3 "" H 9550 3300 50  0000 C CNN
	1    9550 3300
	1    0    0    -1  
$EndComp
$Comp
L GND #PWR011
U 1 1 582BDAE1
P 9450 3550
F 0 "#PWR011" H 9450 3300 50  0001 C CNN
F 1 "GND" H 9450 3400 50  0000 C CNN
F 2 "" H 9450 3550 50  0000 C CNN
F 3 "" H 9450 3550 50  0000 C CNN
	1    9450 3550
	1    0    0    -1  
$EndComp
$Comp
L C_Small C7
U 1 1 582BDCF0
P 8450 3400
F 0 "C7" H 8460 3470 50  0000 L CNN
F 1 "100n" H 8460 3320 50  0000 L CNN
F 2 "Capacitors_SMD:C_0805" H 8450 3400 50  0001 C CNN
F 3 "" H 8450 3400 50  0000 C CNN
	1    8450 3400
	1    0    0    -1  
$EndComp
$Comp
L CP1 C5
U 1 1 582BDDC4
P 8750 3450
F 0 "C5" H 8775 3550 50  0000 L CNN
F 1 "22u" H 8775 3350 50  0000 L CNN
F 2 "Capacitors_ThroughHole:C_Radial_D5_L6_P2.5" H 8750 3450 50  0001 C CNN
F 3 "" H 8750 3450 50  0000 C CNN
	1    8750 3450
	1    0    0    -1  
$EndComp
$Comp
L GND #PWR012
U 1 1 582BDFCC
P 9100 3700
F 0 "#PWR012" H 9100 3450 50  0001 C CNN
F 1 "GND" H 9100 3550 50  0000 C CNN
F 2 "" H 9100 3700 50  0000 C CNN
F 3 "" H 9100 3700 50  0000 C CNN
	1    9100 3700
	1    0    0    -1  
$EndComp
Text Label 6850 3550 0    60   ~ 0
PWMA
Text Label 6850 3650 0    60   ~ 0
PWMB
Text Label 6850 3850 0    60   ~ 0
AIN1
Text Label 6850 3950 0    60   ~ 0
AIN2
Text Label 6850 4350 0    60   ~ 0
BIN1
Text Label 6850 4450 0    60   ~ 0
BIN2
Text Label 5400 4950 2    60   ~ 0
PWMA
Text Label 5400 5150 2    60   ~ 0
AIN1
Text Label 5400 5050 2    60   ~ 0
AIN2
Text Label 5400 2850 2    60   ~ 0
BIN1
Text Label 5400 2950 2    60   ~ 0
BIN2
Text Label 5400 3050 2    60   ~ 0
PWMB
$Comp
L R_Small R3
U 1 1 582BF7BF
P 5750 4300
F 0 "R3" H 5780 4320 50  0000 L CNN
F 1 "10k" H 5780 4260 50  0000 L CNN
F 2 "Capacitors_SMD:C_0805" H 5750 4300 50  0001 C CNN
F 3 "" H 5750 4300 50  0000 C CNN
	1    5750 4300
	0    1    1    0   
$EndComp
$Comp
L +5V #PWR013
U 1 1 582BF8D6
P 5850 4300
F 0 "#PWR013" H 5850 4150 50  0001 C CNN
F 1 "+5V" H 5850 4440 50  0000 C CNN
F 2 "" H 5850 4300 50  0000 C CNN
F 3 "" H 5850 4300 50  0000 C CNN
	1    5850 4300
	1    0    0    -1  
$EndComp
$Comp
L +5V #PWR014
U 1 1 582BFC3F
P 2850 2700
F 0 "#PWR014" H 2850 2550 50  0001 C CNN
F 1 "+5V" H 2850 2840 50  0000 C CNN
F 2 "" H 2850 2700 50  0000 C CNN
F 3 "" H 2850 2700 50  0000 C CNN
	1    2850 2700
	1    0    0    -1  
$EndComp
$Comp
L C_Small C1
U 1 1 582BFCC4
P 2850 3100
F 0 "C1" H 2860 3170 50  0000 L CNN
F 1 "100n" H 2860 3020 50  0000 L CNN
F 2 "Capacitors_SMD:C_0805" H 2850 3100 50  0001 C CNN
F 3 "" H 2850 3100 50  0000 C CNN
	1    2850 3100
	1    0    0    -1  
$EndComp
$Comp
L GND #PWR015
U 1 1 582BFD7E
P 2850 3300
F 0 "#PWR015" H 2850 3050 50  0001 C CNN
F 1 "GND" H 2850 3150 50  0000 C CNN
F 2 "" H 2850 3300 50  0000 C CNN
F 3 "" H 2850 3300 50  0000 C CNN
	1    2850 3300
	1    0    0    -1  
$EndComp
$Comp
L GND #PWR016
U 1 1 582BFFB3
P 3000 5100
F 0 "#PWR016" H 3000 4850 50  0001 C CNN
F 1 "GND" H 3000 4950 50  0000 C CNN
F 2 "" H 3000 5100 50  0000 C CNN
F 3 "" H 3000 5100 50  0000 C CNN
	1    3000 5100
	1    0    0    -1  
$EndComp
$Comp
L CONN_02X01 P1
U 1 1 582C09D6
P 1000 2650
F 0 "P1" H 1000 2750 50  0000 C CNN
F 1 "PWRSwitch" H 1000 2550 50  0000 C CNN
F 2 "Buttons_Switches_ThroughHole:SW_DIP_x1_Slide" H 1000 1450 50  0001 C CNN
F 3 "" H 1000 1450 50  0000 C CNN
	1    1000 2650
	0    1    1    0   
$EndComp
$Comp
L CONN_01X04 P6
U 1 1 582C156E
P 6050 4500
F 0 "P6" H 6050 4750 50  0000 C CNN
F 1 "UART" V 6150 4500 50  0000 C CNN
F 2 "Socket_Strips:Socket_Strip_Straight_1x04" H 6050 4500 50  0001 C CNN
F 3 "" H 6050 4500 50  0000 C CNN
	1    6050 4500
	1    0    0    -1  
$EndComp
$Comp
L GND #PWR017
U 1 1 582C179E
P 5950 3550
F 0 "#PWR017" H 5950 3300 50  0001 C CNN
F 1 "GND" H 5950 3400 50  0000 C CNN
F 2 "" H 5950 3550 50  0000 C CNN
F 3 "" H 5950 3550 50  0000 C CNN
	1    5950 3550
	0    -1   -1   0   
$EndComp
$Comp
L CONN_02X03 P9
U 1 1 582C1CB5
P 10050 1300
F 0 "P9" H 10050 1500 50  0000 C CNN
F 1 "Programator" H 10050 1100 50  0000 C CNN
F 2 "Socket_Strips:Socket_Strip_Straight_2x03" H 10050 100 50  0001 C CNN
F 3 "" H 10050 100 50  0000 C CNN
	1    10050 1300
	1    0    0    -1  
$EndComp
Text Label 9550 1200 0    60   ~ 0
MISO
$Comp
L +5V #PWR018
U 1 1 582C24F6
P 10550 1100
F 0 "#PWR018" H 10550 950 50  0001 C CNN
F 1 "+5V" H 10550 1240 50  0000 C CNN
F 2 "" H 10550 1100 50  0000 C CNN
F 3 "" H 10550 1100 50  0000 C CNN
	1    10550 1100
	1    0    0    -1  
$EndComp
$Comp
L GND #PWR019
U 1 1 582C2620
P 10550 1500
F 0 "#PWR019" H 10550 1250 50  0001 C CNN
F 1 "GND" H 10550 1350 50  0000 C CNN
F 2 "" H 10550 1500 50  0000 C CNN
F 3 "" H 10550 1500 50  0000 C CNN
	1    10550 1500
	1    0    0    -1  
$EndComp
Text Label 10550 1300 2    60   ~ 0
MOSI
Text Label 9550 1300 0    60   ~ 0
SCK
Text Label 9550 1400 0    60   ~ 0
RST
Text Label 5400 3150 2    60   ~ 0
MOSI
Text Label 5400 3250 2    60   ~ 0
MISO
Text Label 5400 3350 2    60   ~ 0
SCK
Text Label 5400 4400 2    60   ~ 0
RST
$Comp
L CONN_01X04 P2
U 1 1 582C3DD7
P 3500 850
F 0 "P2" H 3500 1100 50  0000 C CNN
F 1 "IRleft" V 3600 850 50  0000 C CNN
F 2 "Connectors_Molex:Molex_KK-6410-04_04x2.54mm_Straight" H 3500 850 50  0001 C CNN
F 3 "" H 3500 850 50  0000 C CNN
	1    3500 850 
	0    -1   -1   0   
$EndComp
$Comp
L CONN_01X04 P3
U 1 1 582C3EBC
P 4200 850
F 0 "P3" H 4200 1100 50  0000 C CNN
F 1 "IRmiddle" V 4300 850 50  0000 C CNN
F 2 "Connectors_Molex:Molex_KK-6410-04_04x2.54mm_Straight" H 4200 850 50  0001 C CNN
F 3 "" H 4200 850 50  0000 C CNN
	1    4200 850 
	0    -1   -1   0   
$EndComp
$Comp
L CONN_01X04 P4
U 1 1 582C3F17
P 4900 850
F 0 "P4" H 4900 1100 50  0000 C CNN
F 1 "IRright" V 5000 850 50  0000 C CNN
F 2 "Connectors_Molex:Molex_KK-6410-04_04x2.54mm_Straight" H 4900 850 50  0001 C CNN
F 3 "" H 4900 850 50  0000 C CNN
	1    4900 850 
	0    -1   -1   0   
$EndComp
Text Label 3450 1300 1    60   ~ 0
IRout1
$Comp
L +5V #PWR020
U 1 1 582C4520
P 4250 1500
F 0 "#PWR020" H 4250 1350 50  0001 C CNN
F 1 "+5V" H 4250 1640 50  0000 C CNN
F 2 "" H 4250 1500 50  0000 C CNN
F 3 "" H 4250 1500 50  0000 C CNN
	1    4250 1500
	-1   0    0    1   
$EndComp
Connection ~ 8350 5050
Connection ~ 8350 4950
Wire Wire Line
	8350 4750 8350 5150
Connection ~ 8350 4850
Wire Wire Line
	8750 4750 8750 4900
Wire Wire Line
	8350 4750 8750 4750
Wire Wire Line
	8350 4450 8750 4450
Connection ~ 8350 4450
Wire Wire Line
	8350 4550 8350 4450
Wire Wire Line
	8350 4250 8750 4250
Connection ~ 8350 4250
Wire Wire Line
	8350 4350 8350 4250
Connection ~ 8350 3950
Wire Wire Line
	8350 3950 8750 3950
Wire Wire Line
	8350 4050 8350 3950
Connection ~ 8350 3750
Wire Wire Line
	8350 3750 8750 3750
Wire Wire Line
	8350 3850 8350 3750
Connection ~ 8350 3250
Wire Wire Line
	1750 850  1750 900 
Wire Wire Line
	1000 850  1000 900 
Wire Wire Line
	8350 3150 8350 3350
Wire Wire Line
	8350 3250 9100 3250
Wire Wire Line
	8350 3050 9550 3050
Wire Wire Line
	7150 3450 7150 2800
Wire Wire Line
	7150 2800 8350 2800
Wire Wire Line
	8350 2800 8350 3050
Connection ~ 8350 3050
Wire Wire Line
	9300 3050 9300 3200
Connection ~ 9300 3050
Wire Wire Line
	9550 2950 9550 3200
Connection ~ 9550 3050
Wire Wire Line
	9300 3400 9300 3450
Wire Wire Line
	9300 3450 9550 3450
Wire Wire Line
	9550 3450 9550 3400
Wire Wire Line
	9450 3450 9450 3550
Connection ~ 9450 3450
Connection ~ 8450 3250
Wire Wire Line
	8450 3300 8450 3250
Wire Wire Line
	8450 3500 8450 3600
Wire Wire Line
	8450 3600 9100 3600
Wire Wire Line
	8750 3250 8750 3300
Wire Wire Line
	9100 3250 9100 3350
Connection ~ 8750 3250
Wire Wire Line
	9100 3600 9100 3700
Connection ~ 8750 3600
Wire Wire Line
	7150 3550 6850 3550
Wire Wire Line
	7150 3650 6850 3650
Wire Wire Line
	7150 3850 6850 3850
Wire Wire Line
	7150 3950 6850 3950
Wire Wire Line
	6850 4350 7150 4350
Wire Wire Line
	7150 4450 6850 4450
Wire Wire Line
	5100 4950 5400 4950
Wire Wire Line
	5100 5050 5400 5050
Wire Wire Line
	5100 5150 5400 5150
Wire Wire Line
	5100 2850 5400 2850
Wire Wire Line
	5100 2950 5400 2950
Wire Wire Line
	5100 3050 5400 3050
Wire Wire Line
	5100 4300 5650 4300
Wire Wire Line
	3200 3450 3200 2850
Connection ~ 3200 2950
Connection ~ 3200 3150
Wire Wire Line
	3200 2850 2850 2850
Wire Wire Line
	2850 2700 2850 3000
Connection ~ 2850 2850
Wire Wire Line
	2850 3200 2850 3300
Wire Wire Line
	3200 5150 3200 4950
Connection ~ 3200 5050
Wire Wire Line
	3200 5050 3000 5050
Wire Wire Line
	3000 5050 3000 5100
Wire Wire Line
	1000 2950 1000 2900
Wire Wire Line
	1000 2400 1000 2350
Wire Wire Line
	5100 4450 5850 4450
Wire Wire Line
	5100 4550 5850 4550
Wire Wire Line
	5850 4300 5850 4350
Connection ~ 5850 4300
Wire Wire Line
	5850 4650 5850 4750
Wire Wire Line
	5850 4750 6300 4750
Wire Wire Line
	9800 1200 9550 1200
Wire Wire Line
	9550 1400 9800 1400
Wire Wire Line
	9800 1300 9550 1300
Wire Wire Line
	10300 1400 10550 1400
Wire Wire Line
	10550 1300 10300 1300
Wire Wire Line
	10300 1200 10550 1200
Wire Wire Line
	10550 1200 10550 1100
Wire Wire Line
	10550 1400 10550 1500
Wire Wire Line
	5100 3350 5400 3350
Wire Wire Line
	5100 3250 5400 3250
Wire Wire Line
	5100 3150 5400 3150
Wire Wire Line
	5100 4300 5100 4400
Connection ~ 5100 4300
Wire Wire Line
	5100 4400 5400 4400
Wire Wire Line
	3450 1050 3450 1300
Wire Wire Line
	3550 1050 3550 1400
Wire Wire Line
	4250 1050 4250 1500
Wire Wire Line
	4950 1400 4950 1050
Wire Wire Line
	3550 1400 4950 1400
Connection ~ 4250 1400
Wire Wire Line
	3650 1050 3650 1450
Wire Wire Line
	3650 1450 5050 1450
Wire Wire Line
	4350 1050 4350 1550
Wire Wire Line
	5050 1450 5050 1050
Connection ~ 4350 1450
Wire Wire Line
	4350 1550 4500 1550
$Comp
L GND #PWR021
U 1 1 582C4C6C
P 4500 1550
F 0 "#PWR021" H 4500 1300 50  0001 C CNN
F 1 "GND" H 4500 1400 50  0000 C CNN
F 2 "" H 4500 1550 50  0000 C CNN
F 3 "" H 4500 1550 50  0000 C CNN
	1    4500 1550
	0    -1   -1   0   
$EndComp
Wire Wire Line
	4150 1050 4150 1300
Wire Wire Line
	4850 1050 4850 1300
Text Label 4150 1300 1    60   ~ 0
IRout2
Text Label 4850 1300 1    60   ~ 0
IRout3
$Comp
L R_Small R1
U 1 1 582C539E
P 5350 1150
F 0 "R1" H 5380 1170 50  0000 L CNN
F 1 "200R" H 5380 1110 50  0000 L CNN
F 2 "Capacitors_SMD:C_0805" H 5350 1150 50  0001 C CNN
F 3 "" H 5350 1150 50  0000 C CNN
	1    5350 1150
	-1   0    0    1   
$EndComp
Text Label 5500 1450 1    60   ~ 0
KTIR1
Connection ~ 5750 1050
Wire Wire Line
	5450 1050 5350 1050
Wire Wire Line
	5350 1250 5350 1500
$Comp
L R_Small R2
U 1 1 582C5DFE
P 5550 1400
F 0 "R2" H 5580 1420 50  0000 L CNN
F 1 "20k" H 5580 1360 50  0000 L CNN
F 2 "Capacitors_SMD:C_0805" H 5550 1400 50  0001 C CNN
F 3 "" H 5550 1400 50  0000 C CNN
	1    5550 1400
	1    0    0    -1  
$EndComp
Wire Wire Line
	5550 1050 5550 1300
Wire Wire Line
	5550 1150 5500 1150
Wire Wire Line
	5500 1150 5500 1450
Connection ~ 5550 1150
Wire Wire Line
	5350 1500 6250 1500
Wire Wire Line
	5750 1050 5750 1150
Wire Wire Line
	5650 1050 5850 1050
$Comp
L GND #PWR022
U 1 1 582C6541
P 5750 1150
F 0 "#PWR022" H 5750 900 50  0001 C CNN
F 1 "GND" H 5750 1000 50  0000 C CNN
F 2 "" H 5750 1150 50  0000 C CNN
F 3 "" H 5750 1150 50  0000 C CNN
	1    5750 1150
	1    0    0    -1  
$EndComp
Wire Wire Line
	5850 1050 5850 650 
Wire Wire Line
	5850 650  6550 650 
Wire Wire Line
	6550 650  6550 1050
Wire Wire Line
	6550 1050 6350 1050
$Comp
L R_Small R5
U 1 1 582C665B
P 6050 1150
F 0 "R5" H 6080 1170 50  0000 L CNN
F 1 "200R" H 6080 1110 50  0000 L CNN
F 2 "Capacitors_SMD:C_0805" H 6050 1150 50  0001 C CNN
F 3 "" H 6050 1150 50  0000 C CNN
	1    6050 1150
	-1   0    0    1   
$EndComp
Wire Wire Line
	6050 1050 6150 1050
Wire Wire Line
	6050 1250 6050 1500
Connection ~ 6050 1500
Connection ~ 5550 1500
$Comp
L R_Small R6
U 1 1 582C6808
P 6250 1400
F 0 "R6" H 6280 1420 50  0000 L CNN
F 1 "20k" H 6280 1360 50  0000 L CNN
F 2 "Capacitors_SMD:C_0805" H 6250 1400 50  0001 C CNN
F 3 "" H 6250 1400 50  0000 C CNN
	1    6250 1400
	1    0    0    -1  
$EndComp
Wire Wire Line
	5800 1500 5800 1600
Connection ~ 5800 1500
$Comp
L +5V #PWR023
U 1 1 582C69C6
P 5800 1600
F 0 "#PWR023" H 5800 1450 50  0001 C CNN
F 1 "+5V" H 5800 1740 50  0000 C CNN
F 2 "" H 5800 1600 50  0000 C CNN
F 3 "" H 5800 1600 50  0000 C CNN
	1    5800 1600
	-1   0    0    1   
$EndComp
Wire Wire Line
	6250 1050 6250 1300
Wire Wire Line
	6250 1150 6200 1150
Wire Wire Line
	6200 1150 6200 1450
Connection ~ 6250 1150
Text Label 6200 1450 1    60   ~ 0
KTIR2
$Comp
L CONN_01X04 P8
U 1 1 582C7312
P 7150 850
F 0 "P8" H 7150 1100 50  0000 C CNN
F 1 "ModułStartowy" V 7250 850 50  0000 C CNN
F 2 "Pin_Headers:Pin_Header_Straight_1x04" H 7150 850 50  0001 C CNN
F 3 "" H 7150 850 50  0000 C CNN
	1    7150 850 
	0    -1   -1   0   
$EndComp
Wire Wire Line
	7000 1050 7000 1300
Wire Wire Line
	7200 1050 7200 1500
Text Label 7200 1500 1    60   ~ 0
Start
Text Label 7300 1500 1    60   ~ 0
KillSwitch
Wire Wire Line
	7300 1500 7300 1050
$Comp
L GND #PWR024
U 1 1 582CFE3C
P 7100 1100
F 0 "#PWR024" H 7100 850 50  0001 C CNN
F 1 "GND" H 7100 950 50  0000 C CNN
F 2 "" H 7100 1100 50  0000 C CNN
F 3 "" H 7100 1100 50  0000 C CNN
	1    7100 1100
	1    0    0    -1  
$EndComp
Wire Wire Line
	7100 1050 7100 1100
$Comp
L +5V #PWR025
U 1 1 582D0042
P 7000 1300
F 0 "#PWR025" H 7000 1150 50  0001 C CNN
F 1 "+5V" H 7000 1440 50  0000 C CNN
F 2 "" H 7000 1300 50  0000 C CNN
F 3 "" H 7000 1300 50  0000 C CNN
	1    7000 1300
	-1   0    0    1   
$EndComp
Text Label 5400 4850 2    60   ~ 0
Start
Wire Wire Line
	5400 4850 5100 4850
Text Label 5600 4750 2    60   ~ 0
KillSwitch
Wire Wire Line
	5600 4750 5100 4750
Text Label 5400 3700 2    60   ~ 0
KTIR2
Text Label 5400 3800 2    60   ~ 0
KTIR1
Text Label 5400 3900 2    60   ~ 0
IRout3
Text Label 5400 4000 2    60   ~ 0
IRout2
Text Label 5400 3450 2    60   ~ 0
IRout1
Wire Wire Line
	5100 4000 5400 4000
Wire Wire Line
	5400 3900 5100 3900
Wire Wire Line
	5100 3800 5400 3800
Wire Wire Line
	5400 3700 5100 3700
$Comp
L R_Small R4
U 1 1 582D44F3
P 5850 3550
F 0 "R4" H 5880 3570 50  0000 L CNN
F 1 "220R" H 5880 3510 50  0000 L CNN
F 2 "Capacitors_SMD:C_0805" H 5850 3550 50  0001 C CNN
F 3 "" H 5850 3550 50  0000 C CNN
	1    5850 3550
	0    1    1    0   
$EndComp
$Comp
L Led_Small D2
U 1 1 582D46C5
P 5650 3550
F 0 "D2" H 5600 3675 50  0000 L CNN
F 1 "Led_Small" H 5475 3450 50  0000 L CNN
F 2 "LEDs:LED-3MM" V 5650 3550 50  0001 C CNN
F 3 "" V 5650 3550 50  0000 C CNN
	1    5650 3550
	-1   0    0    1   
$EndComp
Wire Wire Line
	6300 4750 6300 4900
Connection ~ 6300 4750
NoConn ~ 3200 4200
NoConn ~ 3200 4300
NoConn ~ 5100 4200
NoConn ~ 3350 1050
NoConn ~ 4050 1050
NoConn ~ 4750 1050
Connection ~ 8350 4550
Connection ~ 8350 4050
Connection ~ 8350 3850
Connection ~ 8350 4350
$Comp
L CONN_01X03 P5
U 1 1 582D8DA0
P 5550 850
F 0 "P5" H 5550 1050 50  0000 C CNN
F 1 "KTIRleft" V 5650 850 50  0000 C CNN
F 2 "Socket_Strips:Socket_Strip_Straight_1x03" H 5550 850 50  0001 C CNN
F 3 "" H 5550 850 50  0000 C CNN
	1    5550 850 
	0    -1   -1   0   
$EndComp
$Comp
L CONN_01X03 P7
U 1 1 582D933E
P 6250 850
F 0 "P7" H 6250 1050 50  0000 C CNN
F 1 "KTIRleft" V 6350 850 50  0000 C CNN
F 2 "Socket_Strips:Socket_Strip_Straight_1x03" H 6250 850 50  0001 C CNN
F 3 "" H 6250 850 50  0000 C CNN
	1    6250 850 
	0    -1   -1   0   
$EndComp
Wire Wire Line
	5100 3450 5400 3450
NoConn ~ 5100 4100
Wire Wire Line
	5100 3550 5550 3550
$Comp
L GND #PWR?
U 1 1 582DF2D0
P 6300 4900
F 0 "#PWR?" H 6300 4650 50  0001 C CNN
F 1 "GND" H 6300 4750 50  0000 C CNN
F 2 "" H 6300 4900 50  0000 C CNN
F 3 "" H 6300 4900 50  0000 C CNN
	1    6300 4900
	1    0    0    -1  
$EndComp
NoConn ~ 5100 4650
$EndSCHEMATC
